{
  "content": [
    {
      "name": "Substitution - Switch Any Side Item",
      "description": "",
      "imageUrl": "https://cdn.carolinawings.com/images/placeholder.jpg",
      "price": "0.59",
      "category": "Side Items",
      "status": null
    },
    {
      "name": "Philly Style Add-on",
      "description": "",
      "imageUrl": "https://cdn.carolinawings.com/images/placeholder.jpg",
      "price": "0.59",
      "category": "Sandwiches and Wraps",
      "status": null
    },
    {
      "name": "CW Flavor Add-on (Shrimp)",
      "description": "",
      "imageUrl": "https://cdn.carolinawings.com/images/placeholder.jpg",
      "price": "0.59",
      "category": "Ribs, BBQ, and Seafood",
      "status": null
    },
    {
      "name": "Substitution - Upgrade To Side Salad",
      "description": "",
      "imageUrl": "https://cdn.carolinawings.com/images/placeholder.jpg",
      "price": "1.29",
      "category": "Side Items",
      "status": null
    },
    {
      "name": "Substitution - Add A Side Salad",
      "description": "",
      "imageUrl": "https://cdn.carolinawings.com/images/placeholder.jpg",
      "price": "1.99",
      "category": "Side Items",
      "status": null
    },
    {
      "name": "Substitution - Upgrade to Onion Rings",
      "description": "",
      "imageUrl": "https://cdn.carolinawings.com/images/placeholder.jpg",
      "price": "1.99",
      "category": "Side Items",
      "status": null
    },
    {
      "name": "French Fries - Cheese Add-on",
      "description": "",
      "imageUrl": "https://cdn.carolinawings.com/images/placeholder.jpg",
      "price": "1.99",
      "category": "Side Items",
      "status": null
    },
    {
      "name": "Wing Chips - Cheese Add-on",
      "description": "",
      "imageUrl": "https://cdn.carolinawings.com/images/placeholder.jpg",
      "price": "1.99",
      "category": "Side Items",
      "status": null
    },
    {
      "name": "Grilled or Blackened Chicken (Salad Add-on)",
      "description": "",
      "imageUrl": "https://cdn.carolinawings.com/images/placeholder.jpg",
      "price": "3.00",
      "category": "Soup and Salads",
      "status": null
    },
    {
      "name": "Fried Chicken (Salad Add-on)",
      "description": "",
      "imageUrl": "https://cdn.carolinawings.com/images/placeholder.jpg",
      "price": "3.00",
      "category": "Soup and Salads",
      "status": null
    },
    {
      "name": "Buffalo Chicken (Salad Add-on)",
      "description": "",
      "imageUrl": "https://cdn.carolinawings.com/images/placeholder.jpg",
      "price": "3.00",
      "category": "Soup and Salads",
      "status": null
    },
    {
      "name": "Grilled Veggies",
      "description": "",
      "imageUrl": "https://cdn.carolinawings.com/images/placeholder.jpg",
      "price": "3.59",
      "category": "Side Items",
      "status": null
    },
    {
      "name": "French Fries",
      "description": "",
      "imageUrl": "https://cdn.carolinawings.com/images/placeholder.jpg",
      "price": "3.59",
      "category": "Side Items",
      "status": null
    },
    {
      "name": "Wing Chips",
      "description": "",
      "imageUrl": "https://cdn.carolinawings.com/images/placeholder.jpg",
      "price": "3.59",
      "category": "Side Items",
      "status": null
    },
    {
      "name": "Tater Tots",
      "description": "Crispy, golden brown tater tots",
      "imageUrl": "https://cdn.carolinawings.com/images/placeholder.jpg",
      "price": "4.59",
      "category": "Side Items,",
      "status": null
    },
    {
      "name": "Side Salad",
      "description": "Your choice of our Carolina or Caesar salad.",
      "imageUrl": "https://cdn.carolinawings.com/images/placeholder.jpg",
      "price": "4.59",
      "category": "Side Items",
      "status": null
    },
    {
      "name": "Coleslaw",
      "description": "",
      "imageUrl": "https://cdn.carolinawings.com/images/placeholder.jpg",
      "price": "4.59",
      "category": "Side Items",
      "status": null
    },
    {
      "name": "Chips & Salsa",
      "description": "Medium spice salsa and freshly fried tortilla chips.",
      "imageUrl": "https://cdn.carolinawings.com/images/placeholder.jpg",
      "price": "4.99",
      "category": "Shareables",
      "status": null
    },
    {
      "name": "Soup of the Day (Bowl)",
      "description": "Ask your server for today's special.",
      "imageUrl": "https://cdn.carolinawings.com/images/placeholder.jpg",
      "price": "5.99",
      "category": "Soup and Salads",
      "status": null
    },
    {
      "name": "Rob's Chili",
      "description": "A hearty meat & tomato based chili with beans & just the right amount of heat!",
      "imageUrl": "https://cdn.carolinawings.com/images/placeholder.jpg",
      "price": "6.99",
      "category": "Soup and Salads",
      "status": null
    },
    {
      "name": "Mozzarella Sticks",
      "description": "Crispy, golden brown mozzarella sticks served with a side of marinara",
      "imageUrl": "https://cdn.carolinawings.com/images/placeholder.jpg",
      "price": "7.99",
      "category": "Shareables",
      "status": null
    },
    {
      "name": "Fried Pickles",
      "description": "Hand-battered and fried dill pickle chips.",
      "imageUrl": "https://cdn.carolinawings.com/images/placeholder.jpg",
      "price": "7.99",
      "category": "Shareables",
      "status": null
    },
    {
      "name": "Fried Mushrooms",
      "description": "Hand-battered and fried mushrooms",
      "imageUrl": "https://cdn.carolinawings.com/images/placeholder.jpg",
      "price": "7.99",
      "category": "Shareables",
      "status": null
    },
    {
      "name": "Loaded Fries/Tots - Garlic Parmesan",
      "description": "French fries or wing chips covered in garlic parmesan.",
      "imageUrl": "https://cdn.carolinawings.com/images/placeholder.jpg",
      "price": "7.99",
      "category": "Shareables",
      "status": null
    },
    {
      "name": "Rib Bites",
      "description": "4–5 Bones of our award-winning baby back ribs.",
      "imageUrl": "https://cdn.carolinawings.com/images/placeholder.jpg",
      "price": "8.99",
      "category": "Shareables",
      "status": null
    },
    {
      "name": "Loaded Fries/Tots - Cheese & Bacon",
      "description": "French fries or wing chips covered in cheese & bacon.",
      "imageUrl": "https://cdn.carolinawings.com/images/placeholder.jpg",
      "price": "8.99",
      "category": "Shareables",
      "status": null
    },
    {
      "name": "Loaded Fries/Tots - Cheese and Chili",
      "description": "French fries or wing chips covered in cheese and chili.",
      "imageUrl": "https://cdn.carolinawings.com/images/placeholder.jpg",
      "price": "8.99",
      "category": "Shareables",
      "status": null
    },
    {
      "name": "The Carolina Salad",
      "description": "Fresh-cut greens with shredded cheese, carrots, red cabbage, cucumbers, tomatoes, onion & croutons.",
      "imageUrl": "https://cdn.carolinawings.com/images/placeholder.jpg",
      "price": "8.99",
      "category": "Soup and Salads",
      "status": null
    },
    {
      "name": "BLT Wrap",
      "description": "Crisp bacon, fresh cut lettuce, tomato & mayo.",
      "imageUrl": "https://cdn.carolinawings.com/images/placeholder.jpg",
      "price": "8.99",
      "category": "Sandwiches and Wraps",
      "status": null
    },
    {
      "name": "Chicken Tenders - 5 Tenders",
      "description": "Fresh chicken tenders battered & fried to a golden brown. Plain or tossed in one of your favorite wing sauces.",
      "imageUrl": "https://cdn.carolinawings.com/images/placeholder.jpg",
      "price": "8.99",
      "category": "Wings and Tenders",
      "status": null
    },
    {
      "name": "Grilled Chicken Wrap",
      "description": "Diced grilled chicken tossed with fresh cut lettuce, diced tomato, & ranch dressing.",
      "imageUrl": "https://cdn.carolinawings.com/images/placeholder.jpg",
      "price": "9.59",
      "category": "Sandwiches and Wraps",
      "status": null
    },
    {
      "name": "Myra's Chicken Wrap",
      "description": "Grilled chicken, Monterey Jack cheese & our Doc's Special sauce. That's It!",
      "imageUrl": "https://cdn.carolinawings.com/images/placeholder.jpg",
      "price": "9.59",
      "category": "Sandwiches and Wraps",
      "status": null
    },
    {
      "name": "Buffalo Shrimp",
      "description": "Our famous hand-battered shrimp tossed in our award-winning buffalo sauce. Served with bleu cheese or ranch dressing.",
      "imageUrl": "https://cdn.carolinawings.com/images/placeholder.jpg",
      "price": "9.99",
      "category": "Shareables",
      "status": null
    },
    {
      "name": "Veggie Wrap",
      "description": "Our grilled veggies with parmesan cheese in a tomato basil wrap. Served with marinara dip on the side.",
      "imageUrl": "https://cdn.carolinawings.com/images/placeholder.jpg",
      "price": "9.99",
      "category": "Sandwiches and Wraps",
      "status": null
    },
    {
      "name": "Carolina Club Wrap",
      "description": "Our Famous Carolina Club served in a wrap!",
      "imageUrl": "https://cdn.carolinawings.com/images/placeholder.jpg",
      "price": "9.99",
      "category": "Sandwiches and Wraps",
      "status": null
    },
    {
      "name": "Buffalo Wrap",
      "description": "Your choice of our boneless chicken bites or golden fried shrimp tossed in medium wing sauce with fresh cut lettuce & tomatoes.",
      "imageUrl": "https://cdn.carolinawings.com/images/placeholder.jpg",
      "price": "9.99",
      "category": "Sandwiches and Wraps",
      "status": null
    },
    {
      "name": "Kickin' Chicken Phily",
      "description": "Diced grilled chicken, onion & peppers smothered in Monterey Jack cheese on a hoagie roll.",
      "imageUrl": "https://cdn.carolinawings.com/images/placeholder.jpg",
      "price": "9.99",
      "category": "Sandwiches and Wraps",
      "status": null
    },
    {
      "name": "CW's Famous BBQ Sandwich",
      "description": "Cooked to perfection and piled high. Don't forget to add one of CW's BBQ sauces! Served with a side of coleslaw.",
      "imageUrl": "https://cdn.carolinawings.com/images/placeholder.jpg",
      "price": "9.99",
      "category": "Sandwiches and Wraps",
      "status": null
    },
    {
      "name": "Mini Sliders",
      "description": "(3) Mini Hamburger Sliders, w/ or w/o Cheese, and Pickles",
      "imageUrl": "https://cdn.carolinawings.com/images/placeholder.jpg",
      "price": "9.99",
      "category": "Burgers",
      "status": null
    },
    {
      "name": "The Carolina Burger",
      "description": "Freshly made and seasoned with our signature rub with lettuce, tomato & onion (LTO).",
      "imageUrl": "https://cdn.carolinawings.com/images/placeholder.jpg",
      "price": "9.99",
      "category": "Burgers",
      "status": null
    },
    {
      "name": "Ultimate Nachos - Rob's Chili",
      "description": "Tortilla chips covered in Rob's Chili, shredded cheese, tomatoes & jalapeños. Served with sour cream & salsa.",
      "imageUrl": "https://cdn.carolinawings.com/images/placeholder.jpg",
      "price": "9.99",
      "category": "Shareables",
      "status": null
    },
    {
      "name": "Texas Tumbleweeds",
      "description": "Hand-rolled & fried tortillas stuffed with seasoned chicken, black beans, cheese & corn.",
      "imageUrl": "https://cdn.carolinawings.com/images/placeholder.jpg",
      "price": "9.99",
      "category": "Shareables",
      "status": null
    },
    {
      "name": "Boneless Wings - 8 Wings",
      "description": "Hand-battered boneless chicken bites fried to perfection & sautéed in your favorite wing sauce.",
      "imageUrl": "https://cdn.carolinawings.com/images/placeholder.jpg",
      "price": "9.99",
      "category": "Wings and Tenders",
      "status": null
    },
    {
      "name": "Monterey Jack or American Cheese",
      "description": "Our seasoned burger topped with the choice of Monterey Jack or American cheese",
      "imageUrl": "https://cdn.carolinawings.com/images/placeholder.jpg",
      "price": "10.59",
      "category": "Burgers",
      "status": null
    },
    {
      "name": "Quesadillas - Brisket Tossed in Pig Sauce",
      "description": "",
      "imageUrl": "https://cdn.carolinawings.com/images/placeholder.jpg",
      "price": "10.99",
      "category": "Shareables",
      "status": null
    },
    {
      "name": "Carolina Chicken",
      "description": "Fried chicken breast sautéed in your favorite CW's wing sauce. Topped with Monterey Jack cheese, lettuce & tomato.",
      "imageUrl": "https://cdn.carolinawings.com/images/placeholder.jpg",
      "price": "10.99",
      "category": "Sandwiches and Wraps",
      "status": null
    },
    {
      "name": "Brisket Cheese Melt",
      "description": "Slow cooked Brisket, melted American cheese served on Country White Bread. Served with Au-Jus.",
      "imageUrl": "https://cdn.carolinawings.com/images/placeholder.jpg",
      "price": "10.99",
      "category": "Sandwiches and Wraps",
      "status": null
    },
    {
      "name": "Chicken Tenders - 7 Tenders",
      "description": "",
      "imageUrl": "https://cdn.carolinawings.com/images/placeholder.jpg",
      "price": "10.99",
      "category": "Wings and Tenders",
      "status": null
    },
    {
      "name": "Philly Wrap",
      "description": "Grilled sirloin, Monterey Jack, onions & peppers. Served with a side of Au Jus.",
      "imageUrl": "https://cdn.carolinawings.com/images/placeholder.jpg",
      "price": "10.99",
      "category": "Sandwiches and Wraps",
      "status": null
    },
    {
      "name": "Carolina Club",
      "description": "Served on toasted wheat berry bread with fresh cut lettuce and tomato, stacked with turkey, ham, and bacon.",
      "imageUrl": "https://cdn.carolinawings.com/images/placeholder.jpg",
      "price": "10.99",
      "category": "Sandwiches and Wraps",
      "status": null
    }
  ],
  "pageNumber": 0,
  "pageSize": 50,
  "totalElements": 87,
  "totalPages": 2,
  "lastPage": false
}